r-py-cheatsheet
…
copy of dataframe

How to create 2 independent dataframes. In Python, if you another_df = original_df, each modification of another_df will be reflected in original_df.

another_r_df <- r_df

another_py_df = py_df.copy()

filter

penguins |> 
  filter(species == "Adelie")

# A tibble: 152 × 8
   species island    bill_length_mm bill_depth_mm flipper_length_mm body_mass_g
   <fct>   <fct>              <dbl>         <dbl>             <int>       <int>
 1 Adelie  Torgersen           39.1          18.7               181        3750
 2 Adelie  Torgersen           39.5          17.4               186        3800
 3 Adelie  Torgersen           40.3          18                 195        3250
 4 Adelie  Torgersen           NA            NA                  NA          NA
 5 Adelie  Torgersen           36.7          19.3               193        3450
 6 Adelie  Torgersen           39.3          20.6               190        3650
 7 Adelie  Torgersen           38.9          17.8               181        3625
 8 Adelie  Torgersen           39.2          19.6               195        4675
 9 Adelie  Torgersen           34.1          18.1               193        3475
10 Adelie  Torgersen           42            20.2               190        4250
# ℹ 142 more rows
# ℹ 2 more variables: sex <fct>, year <int>

r_df[r_df$species == "Adelie",]

# A tibble: 152 × 8
   species island    bill_length_mm bill_depth_mm flipper_length_mm body_mass_g
   <fct>   <fct>              <dbl>         <dbl>             <int>       <int>
 1 Adelie  Torgersen           39.1          18.7               181        3750
 2 Adelie  Torgersen           39.5          17.4               186        3800
 3 Adelie  Torgersen           40.3          18                 195        3250
 4 Adelie  Torgersen           NA            NA                  NA          NA
 5 Adelie  Torgersen           36.7          19.3               193        3450
 6 Adelie  Torgersen           39.3          20.6               190        3650
 7 Adelie  Torgersen           38.9          17.8               181        3625
 8 Adelie  Torgersen           39.2          19.6               195        4675
 9 Adelie  Torgersen           34.1          18.1               193        3475
10 Adelie  Torgersen           42            20.2               190        4250
# ℹ 142 more rows
# ℹ 2 more variables: sex <fct>, year <int>
…
[344 rows x 1 columns]

filter & select

r_df |> 
  filter(species == "Adelie") |> 
  select("bill_length_mm")

# A tibble: 152 × 1
   bill_length_mm
            <dbl>
 1           39.1
 2           39.5
 3           40.3
 4           NA  
 5           36.7
 6           39.3
 7           38.9
 8           39.2
 9           34.1
10           42  
# ℹ 142 more rows

r_df[r_df$species == "Adelie", "bill_length_mm"]

# A tibble: 152 × 1
   bill_length_mm
            <dbl>
 1           39.1
 2           39.5
 3           40.3
 4           NA  
 5           36.7
 6           39.3
 7           38.9
 8           39.2
 9           34.1
10           42  
# ℹ 142 more rows
…
# # Mean dep_delay and arr_delay for each season
# dadel_season = flights.groupby('season')['dep_delay', 'arr_delay'].mean().reset_index()
# print(dadel_season)
# 
# # Mean and std delays by origin
# del_ori = flights.groupby('origin')['total_delay', 'dep_delay', 'arr_delay'].agg(['mean', 'std'])
# print(del_ori)

rename

r_df |>
  rename(Species = species,
         Island = island)

# A tibble: 344 × 8
   Species Island    bill_length_mm bill_depth_mm flipper_length_mm body_mass_g
   <fct>   <fct>              <dbl>         <dbl>             <int>       <int>
 1 Adelie  Torgersen           39.1          18.7               181        3750
 2 Adelie  Torgersen           39.5          17.4               186        3800
 3 Adelie  Torgersen           40.3          18                 195        3250
 4 Adelie  Torgersen           NA            NA                  NA          NA
 5 Adelie  Torgersen           36.7          19.3               193        3450
 6 Adelie  Torgersen           39.3          20.6               190        3650
 7 Adelie  Torgersen           38.9          17.8               181        3625
 8 Adelie  Torgersen           39.2          19.6               195        4675
 9 Adelie  Torgersen           34.1          18.1               193        3475
10 Adelie  Torgersen           42            20.2               190        4250
# ℹ 334 more rows
# ℹ 2 more variables: sex <fct>, year <int>
…
